"Real GDP by metropolitan area (millions of chained 2009 dollars)"
"Levels" 
"Bureau of Economic Analysis" 
"All industry total"
"Fips","Area","2001","2002","2003","2004","2005","2006","2007","2008","2009","2010","2011","2012","2013","2014","2015","2016"
"00998","United States (Metropolitan Portion)",11498175,11700386,12002408,12435539,12854193,13210078,13419428,13327607,12956728,13221289,13400379,13688966,13888049,14214225,14619757,14863879
"10180","Abilene, TX (Metropolitan Statistical Area)",4779,4891,5088,5237,5241,5484,5652,5795,5559,5631,5660,5932,6294,6701,6733,6539
"10420","Akron, OH (Metropolitan Statistical Area)",27124,27963,28347,29531,29834,29559,29735,29983,28604,28925,28671,28581,29301,30815,32370,33843
"10500","Albany, GA (Metropolitan Statistical Area)",5026,5022,5167,5252,5354,5141,5018,4943,5031,4893,4787,4811,4819,4655,4488,4426
"10540","Albany, OR (Metropolitan Statistical Area)",3030,3159,3090,3333,3305,3470,3337,3237,3220,3162,3233,3334,3310,3280,3386,3603
"10580","Albany-Schenectady-Troy, NY (Metropolitan Statistical Area)",39973,39832,41012,41878,42085,42631,41999,42018,42841,43307,42812,43386,43764,44120,45210,45640
"10740","Albuquerque, NM (Metropolitan Statistical Area)",31105,31326,33999,37642,37773,37965,37379,38039,37739,37710,37238,37394,35745,36809,37690,38457
"10780","Alexandria, LA (Metropolitan Statistical Area)",4386,4639,4580,4679,4974,5059,5121,5049,5076,5152,5148,5113,5046,5040,5017,5366
"10900","Allentown-Bethlehem-Easton, PA-NJ (Metropolitan Statistical Area)",31580,32500,31272,31328,33127,33569,33587,33333,31992,32422,32360,32472,33544,36204,37270,38097
"11020","Altoona, PA (Metropolitan Statistical Area)",4198,4210,4339,4378,4462,4509,4471,4407,4440,4525,4555,4527,4584,4646,4733,4705
"11100","Amarillo, TX (Metropolitan Statistical Area)",8048,8330,8595,8742,8811,9197,9444,10074,10433,10868,10943,11044,11181,11479,11763,11906
"11180","Ames, IA (Metropolitan Statistical Area)",3193,3180,3237,3350,3400,3583,3683,4038,3700,3707,3813,4165,4098,4176,4304,4358
"11260","Anchorage, AK (Metropolitan Statistical Area)",18621,19665,19791,20980,21923,22681,23583,24200,26700,26262,26619,27954,26757,25819,26391,25168
"11460","Ann Arbor, MI (Metropolitan Statistical Area)",18883,19895,20212,19953,20273,20192,20574,19944,18617,19273,19126,19085,19171,18690,19369,19508
"11500","Anniston-Oxford-Jacksonville, AL (Metropolitan Statistical Area)",3458,3349,3471,3708,3798,3797,3947,3973,3766,3847,3732,3634,3455,3407,3366,3399
"11540","Appleton, WI (Metropolitan Statistical Area)",9137,9243,9613,9940,10073,10086,10285,9937,9795,9919,10143,10250,10083,10382,10731,10943
"11700","Asheville, NC (Metropolitan Statistical Area)",12258,12655,13056,13631,14107,14607,14238,14266,13720,14144,14075,14052,14305,14868,15405,15898
"12020","Athens-Clarke County, GA (Metropolitan Statistical Area)",6054,6077,6234,6378,6659,6716,6846,6882,6820,6776,6723,6795,6776,6928,7315,7565
"12060","Atlanta-Sandy Springs-Roswell, GA (Metropolitan Statistical Area)",252509,253301,257510,263982,275022,281613,290640,283579,269571,269939,274621,278537,288509,299881,308761,320171
"12100","Atlantic City-Hammonton, NJ (Metropolitan Statistical Area)",11792,12107,12763,13679,14282,14552,13759,13355,12385,12509,12202,12071,11937,11638,11170,11117
"12220","Auburn-Opelika, AL (Metropolitan Statistical Area)",2889,2995,3129,3464,3589,3762,3762,3860,3677,3774,3882,3986,4059,4226,4328,4543
"12260","Augusta-Richmond County, GA-SC (Metropolitan Statistical Area)",18179,18071,18614,19220,19318,19115,19065,19261,19294,19919,19949,20035,19753,19949,20267,20404
"12420","Austin-Round Rock, TX (Metropolitan Statistical Area)",62312,62502,65075,68612,73399,80053,82786,84104,82327,87432,93413,98992,104902,111421,119914,125816
"12540","Bakersfield, CA (Metropolitan Statistical Area)",21809,23796,23895,24880,26200,27770,28693,28389,29944,30720,30221,32103,32439,33607,33579,32983
"12580","Baltimore-Columbia-Towson, MD (Metropolitan Statistical Area)",125414,128658,131163,136499,142821,145712,147773,148181,147571,150990,154141,155582,156911,158780,160687,164545
"12620","Bangor, ME (Metropolitan Statistical Area)",5130,5258,5198,5352,5419,5450,5376,5346,5324,5191,5132,5153,5086,5076,5147,5218
"12700","Barnstable Town, MA (Metropolitan Statistical Area)",9301,9657,10073,10090,9910,9568,9147,8991,8987,9169,9385,9751,9355,9348,9584,9837
"12940","Baton Rouge, LA (Metropolitan Statistical Area)",31955,34191,37189,39984,44749,42393,40853,41393,40973,43568,43993,44410,41522,43004,43094,43476
"12980","Battle Creek, MI (Metropolitan Statistical Area)",4885,5280,5309,5353,5421,5291,5188,5214,4944,5305,5124,5166,5297,5188,5224,5240
"13020","Bay City, MI (Metropolitan Statistical Area)",3040,3160,3181,3115,3095,3176,3091,3003,2958,3013,2982,2991,2976,2852,2882,2869
"13140","Beaumont-Port Arthur, TX (Metropolitan Statistical Area)",15339,15791,16627,19032,17335,17766,18940,17288,18665,19789,18179,18723,19399,19625,20491,20735
"13220","Beckley, WV (Metropolitan Statistical Area)",3670,3664,3454,3522,3662,3738,3540,3723,3520,3779,4365,4028,3923,3885,3720,3585
"13380","Bellingham, WA (Metropolitan Statistical Area)",6196,6717,7132,7417,9020,8032,8060,8079,8849,9181,8220,8068,8477,8020,8398,8539
"13460","Bend-Redmond, OR (Metropolitan Statistical Area)",5149,5532,5743,5772,6215,6765,6591,6308,5770,5726,5964,6190,6504,7003,7614,8229
"13740","Billings, MT (Metropolitan Statistical Area)",5610,5737,6197,6516,6692,6704,7562,7239,6695,7093,7677,7672,7875,8760,9063,9190
"13780","Binghamton, NY (Metropolitan Statistical Area)",7512,7656,7659,7800,8070,8266,8637,8837,8779,8912,8874,8736,8654,8464,8399,8409
"13820","Birmingham-Hoover, AL (Metropolitan Statistical Area)",47869,49731,50494,52354,53180,53027,54060,53654,50637,51482,52391,54517,53892,53798,54719,55541
"13900","Bismarck, ND (Metropolitan Statistical Area)",3977,4059,4295,4374,4504,4548,4626,4805,4852,5108,5310,5946,6215,6804,7187,6890
"13980","Blacksburg-Christiansburg-Radford, VA (Metropolitan Statistical Area)",5057,5092,5368,5401,5629,5804,6063,5642,5422,5486,5563,5986,5926,6056,6224,6096
"14010","Bloomington, IL (Metropolitan Statistical Area)",8702,8847,9069,9372,9108,9696,9605,9372,9636,9875,9907,10179,10480,10730,10150,10054
"14020","Bloomington, IN (Metropolitan Statistical Area)",5039,5298,5369,5547,5679,5924,5916,6062,6232,6299,6248,6066,5763,5822,5904,6020
"14100","Bloomsburg-Berwick, PA (Metropolitan Statistical Area)",2727,2865,2805,2869,2884,3000,3055,3066,3072,3183,3256,3285,3399,3337,3489,3502
"14260","Boise City, ID (Metropolitan Statistical Area)",19343,19955,20986,22153,23835,25369,25884,25585,24225,24782,24682,24920,26060,26890,27508,28180
"14460","Boston-Cambridge-Newton, MA-NH (Metropolitan Statistical Area)",282463,281995,288133,297162,302704,309456,319743,319716,313938,325698,332700,340681,342706,350209,364136,371577
"14500","Boulder, CO (Metropolitan Statistical Area)",17541,15606,16021,16670,17021,17159,18099,18141,18220,18972,19450,19983,19942,20915,21333,21675
"14540","Bowling Green, KY (Metropolitan Statistical Area)",4375,4559,4717,4856,5178,5373,5367,5386,5004,5318,5444,5672,5882,5916,6037,6312
"14740","Bremerton-Silverdale, WA (Metropolitan Statistical Area)",8144,8736,8976,9012,9107,9172,9046,9185,9335,9368,9174,9003,8842,9155,9281,9346
"14860","Bridgeport-Stamford-Norwalk, CT (Metropolitan Statistical Area)",75765,74980,76341,78790,82530,83988,91255,90420,83664,84492,82987,85569,85474,86082,87079,88026
"15180","Brownsville-Harlingen, TX (Metropolitan Statistical Area)",6841,7099,7240,7338,7566,7778,7811,7964,8083,8391,8532,8657,8711,8799,8918,9160
"15260","Brunswick, GA (Metropolitan Statistical Area)",3050,3168,3394,3650,3815,3951,3850,3657,3531,3502,3412,3272,3261,3240,3309,3547
"15380","Buffalo-Cheektowaga-Niagara Falls, NY (Metropolitan Statistical Area)",42932,44919,45526,46399,46710,47551,46714,46706,47418,48525,49102,48901,48711,49379,49692,50321
"15500","Burlington, NC (Metropolitan Statistical Area)",4446,4556,4429,4573,4588,4694,4571,4499,4199,4370,4562,4722,4616,4507,4474,4681
"15540","Burlington-South Burlington, VT (Metropolitan Statistical Area)",8753,9010,9682,10032,10279,10528,10396,10493,10599,11129,11509,11724,11639,11751,11898,12140
"15680","California-Lexington Park, MD (Metropolitan Statistical Area)",3853,4076,4339,4437,4389,4576,4661,4691,4929,5274,5478,5424,5442,5444,5527,5584
"15940","Canton-Massillon, OH (Metropolitan Statistical Area)",13932,14143,14217,14430,14319,13800,13746,13559,12549,12844,13419,13888,14904,15408,15461,14856
"15980","Cape Coral-Fort Myers, FL (Metropolitan Statistical Area)",16647,17885,19413,22293,23895,25465,24495,23066,22201,21462,20323,20398,20568,21740,22822,24017
"16020","Cape Girardeau, MO-IL (Metropolitan Statistical Area)",3009,3117,3267,3492,3606,3598,3795,3587,3533,3592,3517,3557,3628,3666,3689,3687
"16060","Carbondale-Marion, IL (Metropolitan Statistical Area)",3642,3789,3831,3868,3966,4091,4063,4161,4268,4391,4438,4677,4460,4435,4398,4571
"16180","Carson City, NV (Metropolitan Statistical Area)",2750,2838,2922,2995,3060,3069,3242,3100,3135,3236,2943,3243,3007,3033,2799,2833
"16220","Casper, WY (Metropolitan Statistical Area)",3394,3540,3686,3937,4332,5281,5471,6692,5773,5503,5564,5821,5816,6161,5964,5271
"16300","Cedar Rapids, IA (Metropolitan Statistical Area)",10967,10544,11311,12146,12582,12214,13583,13121,14881,15252,15759,15666,15582,15825,16091,15839
"16540","Chambersburg-Waynesboro, PA (Metropolitan Statistical Area)",3575,3626,3841,4142,4403,4557,4531,4542,4244,4349,4389,4355,4596,4675,4697,4686
"16580","Champaign-Urbana, IL (Metropolitan Statistical Area)",8080,8380,8567,8653,8615,8852,8971,9492,9889,10183,10022,10308,10233,10411,10526,10580
"16620","Charleston, WV (Metropolitan Statistical Area)",11920,11978,11887,12073,12223,12408,12484,12759,13063,13229,13159,12746,12142,11347,11612,11392
"16700","Charleston-North Charleston, SC (Metropolitan Statistical Area)",21480,22902,24212,24760,26035,26583,27935,27714,26925,27799,29494,30116,30668,31827,32962,33982
"16740","Charlotte-Concord-Gastonia, NC-SC (Metropolitan Statistical Area)",94709,99391,101978,105086,114531,122784,119514,127022,117225,115827,122522,125472,126707,130280,136196,140815
"16820","Charlottesville, VA (Metropolitan Statistical Area)",7759,8138,8370,8767,9306,9526,9621,9708,9754,10075,10176,10451,10398,10793,11284,11201
"16860","Chattanooga, TN-GA (Metropolitan Statistical Area)",19116,19172,19597,20073,20392,21161,21637,21752,20379,21012,21345,21896,21735,21712,22152,22309
"16940","Cheyenne, WY (Metropolitan Statistical Area)",3430,3594,3788,4019,4128,4548,4699,5181,4576,4638,4801,4755,4862,4735,4733,4689
"16980","Chicago-Naperville-Elgin, IL-IN-WI (Metropolitan Statistical Area)",502223,503971,510351,523290,534392,545932,553135,536771,516764,522484,529860,545392,543676,552758,563789,568969
"17020","Chico, CA (Metropolitan Statistical Area)",5845,6105,6200,6326,6409,6438,6490,6505,6476,6474,6310,6088,6455,6357,6637,6823
"17140","Cincinnati, OH-KY-IN (Metropolitan Statistical Area)",96633,99102,100222,102557,105622,105375,105526,104316,101955,105826,108412,109422,112256,112835,113194,116071
"17300","Clarksville, TN-KY (Metropolitan Statistical Area)",6874,7201,7538,8120,8877,9185,8955,9244,9242,9514,10190,10047,9791,9620,9634,9441
"17420","Cleveland, TN (Metropolitan Statistical Area)",3261,3367,3345,3491,3433,3391,3296,3376,3200,3446,3388,3629,3622,3740,3805,3746
"17460","Cleveland-Elyria, OH (Metropolitan Statistical Area)",103743,105279,108071,110508,111663,111279,113307,110705,103325,104299,106486,108458,109952,112804,113809,114492
"17660","Coeur d'Alene, ID (Metropolitan Statistical Area)",3380,3522,3607,3869,4221,4400,4558,4479,4309,4193,4306,4434,4550,4610,4842,4956
"17780","College Station-Bryan, TX (Metropolitan Statistical Area)",5458,5520,5803,6032,6245,6475,6605,6841,7432,7620,7531,7782,8061,8444,8782,8599
"17820","Colorado Springs, CO (Metropolitan Statistical Area)",22370,22955,23106,23807,24904,24691,24824,24606,25382,26516,27128,27323,27296,26775,27150,28106
"17860","Columbia, MO (Metropolitan Statistical Area)",5990,6072,6118,6202,6404,6528,6403,6520,6601,6819,7030,7218,7570,7605,7710,7839
"17900","Columbia, SC (Metropolitan Statistical Area)",27169,27860,28921,30028,30476,31640,32295,32615,32184,31632,31813,31808,32535,33667,34865,35261
"17980","Columbus, GA-AL (Metropolitan Statistical Area)",10242,10411,10814,10891,10890,10929,10821,11146,11605,11940,12170,12352,12395,12225,12077,11865
"18020","Columbus, IN (Metropolitan Statistical Area)",3490,3443,3523,3803,3910,4165,4410,4579,3937,4339,4545,4826,4908,5023,5110,4928
"18140","Columbus, OH (Metropolitan Statistical Area)",85481,87596,89996,93741,95577,96487,97015,95908,91882,94257,99025,104139,105826,108289,111748,114492
"18580","Corpus Christi, TX (Metropolitan Statistical Area)",16317,16561,17051,18557,17657,17983,18797,18403,18210,18294,17991,18850,20725,20654,20625,20268
"18700","Corvallis, OR (Metropolitan Statistical Area)",2406,2746,3108,3696,3670,4218,4450,5036,5281,5537,5447,4817,4368,4251,4187,4324
"18880","Crestview-Fort Walton Beach-Destin, FL (Metropolitan Statistical Area)",8929,10265,10720,12477,12547,12371,12393,11236,10922,10645,10759,11489,10653,11349,11741,12113
"19060","Cumberland, MD-WV (Metropolitan Statistical Area)",2777,2894,2903,2848,2850,2737,2593,2672,2796,2863,2875,2858,2804,2786,2779,2797
"19100","Dallas-Fort Worth-Arlington, TX (Metropolitan Statistical Area)",306951,314589,309889,316904,328238,345226,354719,357707,347523,359152,372206,391232,412265,432289,457409,471278
"19140","Dalton, GA (Metropolitan Statistical Area)",7342,7593,7481,6369,6259,6148,6083,5704,5112,4933,4879,5004,5154,5296,5322,5448
"19180","Danville, IL (Metropolitan Statistical Area)",2466,2453,2612,2672,2621,2688,2566,2599,2557,2606,2655,2600,2602,2568,2439,2399
"19300","Daphne-Fairhope-Foley, AL (Metropolitan Statistical Area)",4171,4423,4719,5073,5705,5845,5931,5668,5492,5368,5329,5515,6050,6185,5990,6137
"19340","Davenport-Moline-Rock Island, IA-IL (Metropolitan Statistical Area)",15319,15442,15968,17202,17516,17622,17793,18044,17472,17713,18223,18666,17806,17473,17090,16765
"19380","Dayton, OH (Metropolitan Statistical Area)",35228,35956,36219,37380,37265,37453,36572,35364,32901,33007,33943,34375,34554,35114,35282,35535
"19460","Decatur, AL (Metropolitan Statistical Area)",4650,4579,4701,5100,5002,5032,5051,4989,4847,4970,4811,4922,4928,4927,4593,4687
"19500","Decatur, IL (Metropolitan Statistical Area)",5411,5196,5233,5277,5422,5540,5722,5881,5591,5598,5750,5589,5454,5637,5494,5289
"19660","Deltona-Daytona Beach-Ormond Beach, FL (Metropolitan Statistical Area)",12541,13356,14431,14685,14995,15533,15715,14775,13679,13492,13108,13572,14198,14186,14446,15059
"19740","Denver-Aurora-Lakewood, CO (Metropolitan Statistical Area)",131167,132674,134143,135972,143136,145565,147011,151216,149283,151224,153031,157916,159987,169519,176148,180446
"19780","Des Moines-West Des Moines, IA (Metropolitan Statistical Area)",28118,30734,33218,36046,38165,37277,40203,36233,35147,35902,36972,39381,39353,41389,42979,43873
"19820","Detroit-Warren-Dearborn, MI (Metropolitan Statistical Area)",217367,221260,227573,226451,230537,223024,220825,207578,185535,196263,203896,208204,209372,213402,219200,223835
"20020","Dothan, AL (Metropolitan Statistical Area)",4222,4529,4527,4713,4864,4853,4786,4607,4459,4521,4467,4522,4504,4485,4496,4530
"20100","Dover, DE (Metropolitan Statistical Area)",5096,5383,5558,5968,6060,6185,6113,5816,6367,5826,5865,5755,5829,6018,6303,6309
"20220","Dubuque, IA (Metropolitan Statistical Area)",3500,3608,3707,4014,4125,4196,4304,4175,4042,4349,4451,5012,4660,4821,4888,4827
"20260","Duluth, MN-WI (Metropolitan Statistical Area)",9681,10116,10060,10235,10145,10082,10019,10275,9678,11059,11543,11270,11561,11795,11218,11117
"20500","Durham-Chapel Hill, NC (Metropolitan Statistical Area)",24389,26002,27552,28201,29695,34558,37010,38626,39175,40026,36723,35905,38852,39329,39452,38376
"20700","East Stroudsburg, PA (Metropolitan Statistical Area)",4678,4894,4936,5079,5163,5366,5535,5640,5524,5584,5314,5131,5139,4994,5122,5146
"20740","Eau Claire, WI (Metropolitan Statistical Area)",5077,5316,5504,5698,6098,6267,6387,6192,6167,6388,6499,6822,6745,6993,7306,7325
"20940","El Centro, CA (Metropolitan Statistical Area)",3801,4349,4363,4269,4402,4721,4551,5038,5036,5011,5247,4946,4986,4887,4917,5002
"21060","Elizabethtown-Fort Knox, KY (Metropolitan Statistical Area)",4190,4275,4518,4616,4660,4862,4658,4831,4864,5563,5962,5751,5608,5539,5232,5475
"21140","Elkhart-Goshen, IN (Metropolitan Statistical Area)",8019,8792,9698,10259,10689,11231,11551,9982,7566,9899,9829,10764,11423,12288,12992,13830
"21300","Elmira, NY (Metropolitan Statistical Area)",2719,2702,2735,2799,2910,2891,2894,3028,2946,3158,3213,3206,3141,3096,3025,2910
"21340","El Paso, TX (Metropolitan Statistical Area)",23093,23098,20633,22551,22665,22258,22484,21471,22147,23541,24318,24892,24746,24330,24841,25380
"21420","Enid, OK (Metropolitan Statistical Area)",1899,1947,2024,2020,2070,2197,2191,2237,2340,2430,2522,2755,2924,3167,3181,3143
"21500","Erie, PA (Metropolitan Statistical Area)",9831,9621,9581,10261,10399,10157,10054,10199,9597,9727,10248,9974,10160,9974,9976,9825
"21660","Eugene, OR (Metropolitan Statistical Area)",10476,10826,11046,11648,11701,12300,12777,12948,12036,11854,12391,12387,12459,12489,13134,13501
"21780","Evansville, IN-KY (Metropolitan Statistical Area)",14764,15315,15753,15836,15515,15636,15601,15954,15748,16357,16422,15706,15445,15088,15007,14769
"21820","Fairbanks, AK (Metropolitan Statistical Area)",4698,4464,4748,4914,5002,5317,5396,5311,4909,4937,5027,5062,4729,4790,4757,4684
"22020","Fargo, ND-MN (Metropolitan Statistical Area)",7799,8135,8525,8979,9249,9588,9921,10309,10216,10496,11119,12061,12342,13010,13227,13534
"22140","Farmington, NM (Metropolitan Statistical Area)",6261,6205,6031,6211,6097,6271,6301,6118,6450,5919,6415,6417,6117,6329,6385,5835
"22180","Fayetteville, NC (Metropolitan Statistical Area)",12163,12712,13013,13322,14002,14330,14582,15343,16195,16616,16832,16400,16019,15424,15253,15285
"22220","Fayetteville-Springdale-Rogers, AR-MO (Metropolitan Statistical Area)",13484,15935,16814,17908,18904,19214,18338,18268,17130,18195,19593,19929,21167,22153,23051,23956
"22380","Flagstaff, AZ (Metropolitan Statistical Area)",4006,4091,4160,4205,4308,4626,5083,5032,4643,4800,4933,4787,4868,4860,4964,5059
"22420","Flint, MI (Metropolitan Statistical Area)",13265,13803,14048,13831,13777,13743,13235,12130,11048,11515,11774,11695,11752,11687,12002,12279
"22500","Florence, SC (Metropolitan Statistical Area)",6910,7001,7256,7199,7237,7353,7502,7332,7107,6960,6793,6909,7203,7217,7254,7221
"22520","Florence-Muscle Shoals, AL (Metropolitan Statistical Area)",3610,3639,3724,3956,4111,4107,4047,4032,3976,4035,4083,4241,4177,4241,4297,4373
"22540","Fond du Lac, WI (Metropolitan Statistical Area)",3474,3480,3578,3669,3703,3736,3817,3855,3624,3794,3838,3875,3920,4073,4142,4183
"22660","Fort Collins, CO (Metropolitan Statistical Area)",9738,10372,10499,10635,10740,10968,11444,11327,11461,11895,12039,12535,13365,13279,13664,14186
"22900","Fort Smith, AR-OK (Metropolitan Statistical Area)",8104,8159,8617,9101,9630,10092,9582,9592,9038,9550,9537,9392,9413,9508,9207,9097
"23060","Fort Wayne, IN (Metropolitan Statistical Area)",16049,16560,16817,17080,17635,17904,18213,17496,16464,17391,17630,17904,17839,18181,18568,18711
"23420","Fresno, CA (Metropolitan Statistical Area)",24706,27108,28594,29918,31023,32724,31623,31750,31406,31216,31940,31146,32501,33044,33961,35102
"23460","Gadsden, AL (Metropolitan Statistical Area)",2521,2593,2584,2703,2687,2667,2625,2623,2564,2611,2617,2581,2492,2505,2512,2582
"23540","Gainesville, FL (Metropolitan Statistical Area)",8485,8675,8725,9608,9762,10120,10698,10683,10474,10532,10288,10428,10973,10626,10710,10976
"23580","Gainesville, GA (Metropolitan Statistical Area)",5943,5938,6280,6454,6853,6805,6887,6773,6460,6392,6847,6786,6712,7116,7503,7663
"23900","Gettysburg, PA (Metropolitan Statistical Area)",2419,2463,2628,2717,2797,2826,2849,2779,2776,2675,2591,2615,2682,2731,2749,2828
"24020","Glens Falls, NY (Metropolitan Statistical Area)",3601,3812,3906,4116,4208,4197,4063,4149,4234,4390,4342,4382,4309,4357,4328,4307
"24140","Goldsboro, NC (Metropolitan Statistical Area)",3771,3745,3708,3910,3928,4059,3988,3880,3988,3995,3977,3983,3984,3920,3907,3852
"24220","Grand Forks, ND-MN (Metropolitan Statistical Area)",3333,3459,3659,3562,3610,3828,3797,4045,3917,4032,3941,4299,4462,4424,4474,4612
"24260","Grand Island, NE (Metropolitan Statistical Area)",2620,2646,2869,2819,2965,3096,3201,3214,3239,3332,3525,3625,3625,3568,3582,3669
"24300","Grand Junction, CO (Metropolitan Statistical Area)",3966,4204,4273,4238,4567,4871,5356,5697,5277,4990,4884,4881,4802,4886,4750,4582
"24340","Grand Rapids-Wyoming, MI (Metropolitan Statistical Area)",42330,44028,44686,44893,45937,45885,44707,42642,39924,41148,42366,44451,46324,48330,50413,51589
"24420","Grants Pass, OR (Metropolitan Statistical Area)",1565,1646,1781,1957,2006,2047,1966,1915,1883,1851,1878,1907,1842,1910,2016,2096
"24500","Great Falls, MT (Metropolitan Statistical Area)",2503,2550,2650,2709,2716,2793,2855,2908,2885,2947,2963,2882,2842,2971,3060,3108
"24540","Greeley, CO (Metropolitan Statistical Area)",6950,6477,6520,6644,6901,7055,7319,7420,7392,7519,7660,8021,8395,9685,10341,10146
"24580","Green Bay, WI (Metropolitan Statistical Area)",13712,13913,14671,15241,15374,15306,15401,14921,14866,15014,15322,15572,15558,15690,16155,16321
"24660","Greensboro-High Point, NC (Metropolitan Statistical Area)",31491,32094,32544,32553,33007,33975,34156,34897,33348,33952,34646,33596,34076,34880,35053,34728
"24780","Greenville, NC (Metropolitan Statistical Area)",5253,5522,5610,5481,5604,5854,6056,6200,6224,6405,6570,6556,6707,6707,6855,7037
"24860","Greenville-Anderson-Mauldin, SC (Metropolitan Statistical Area)",29239,29841,30647,29441,29937,30063,31526,31537,29650,30869,32096,31989,32599,33655,34913,35755
"25060","Gulfport-Biloxi-Pascagoula, MS (Metropolitan Statistical Area)",12978,13098,14057,13709,14508,14839,15180,15869,15118,14971,14415,15519,14918,14522,14493,14417
"25180","Hagerstown-Martinsburg, MD-WV (Metropolitan Statistical Area)",6990,7293,7571,7790,8057,8313,8014,7809,7611,7711,7907,8117,8239,8442,8392,8454
"25220","Hammond, LA (Metropolitan Statistical Area)",2192,2300,2476,2716,3060,3641,3496,3489,3288,3677,3571,3397,3260,3382,3181,3289
"25260","Hanford-Corcoran, CA (Metropolitan Statistical Area)",3461,3672,4068,4320,4442,4391,4705,4494,4118,4219,4692,4313,4340,4681,4446,4484
"25420","Harrisburg-Carlisle, PA (Metropolitan Statistical Area)",26420,26902,27605,28426,28789,29565,29336,28896,28701,29061,30161,30273,30572,30936,31476,31439
"25500","Harrisonburg, VA (Metropolitan Statistical Area)",5833,5406,5558,5569,5795,5961,6101,6083,6663,6903,6840,6778,6749,6728,6896,6746
"25540","Hartford-West Hartford-East Hartford, CT (Metropolitan Statistical Area)",72510,70359,71323,78138,78578,82083,84698,80849,80080,80856,81070,79252,77716,76918,79986,79987
"25620","Hattiesburg, MS (Metropolitan Statistical Area)",3845,3933,3994,4127,4311,4771,4908,4837,4932,4925,4886,4981,4960,5018,5167,5228
"25860","Hickory-Lenoir-Morganton, NC (Metropolitan Statistical Area)",12370,12306,11935,12528,12393,12806,12040,11694,10993,11377,11308,11174,11174,11304,11658,11946
"25940","Hilton Head Island-Bluffton-Beaufort, SC (Metropolitan Statistical Area)",8165,7130,7272,7622,7893,8333,8176,7979,7541,7570,7248,7240,7322,7619,7753,7885
"25980","Hinesville, GA (Metropolitan Statistical Area)",2278,2281,2451,2542,2738,2731,2746,3052,3102,3305,3450,3312,3350,3166,3100,3052
"26140","Homosassa Springs, FL (Metropolitan Statistical Area)",2731,2854,2998,3098,3305,3407,3462,3233,3258,3297,3166,3148,2974,2768,2722,2654
"26300","Hot Springs, AR (Metropolitan Statistical Area)",2418,2415,2494,2545,2669,2749,2781,2769,2674,2799,2938,2835,2743,2759,2748,2700
"26380","Houma-Thibodaux, LA (Metropolitan Statistical Area)",6817,6536,6620,6631,7056,8659,9565,9706,10331,10552,10023,10728,10779,10835,10246,9176
"26420","Houston-The Woodlands-Sugar Land, TX (Metropolitan Statistical Area)",288096,287502,293895,320394,319237,341425,370263,360160,370247,372614,385028,408515,425043,434848,456245,442458
"26580","Huntington-Ashland, WV-KY-OH (Metropolitan Statistical Area)",10480,10864,11012,11182,11297,11447,11684,12236,12448,12390,11980,12478,13300,13274,13171,12903
"26620","Huntsville, AL (Metropolitan Statistical Area)",14999,15862,16704,17760,18449,19147,19762,20075,20316,21179,21406,21479,21309,21634,22006,22175
"26820","Idaho Falls, ID (Metropolitan Statistical Area)",3993,4328,4394,4615,4870,5106,5152,5259,5260,5296,5229,5114,5106,5188,5438,5530
"26900","Indianapolis-Carmel-Anderson, IN (Metropolitan Statistical Area)",94563,93594,96839,102153,103090,106623,108779,110470,106343,109876,109661,109669,114433,115639,115116,117589
"26980","Iowa City, IA (Metropolitan Statistical Area)",6330,6376,6559,6771,6780,6975,7139,7290,7401,7763,7999,8145,8333,8623,8599,8661
"27060","Ithaca, NY (Metropolitan Statistical Area)",3722,3848,4010,4060,4075,4080,4089,4240,4282,4346,4311,4415,4398,4346,4360,4341
"27100","Jackson, MI (Metropolitan Statistical Area)",5203,5315,5228,5400,5449,5337,5304,4995,4713,5032,5203,5188,5548,5303,5395,5464
"27140","Jackson, MS (Metropolitan Statistical Area)",20789,21029,21773,22527,22704,23420,23999,24194,23676,24195,24367,25091,25300,25667,25695,25695
"27180","Jackson, TN (Metropolitan Statistical Area)",4519,4617,4816,4902,5054,5164,4954,5051,4905,4938,5096,5514,5355,5231,5267,5345
"27260","Jacksonville, FL (Metropolitan Statistical Area)",49448,51626,54212,55934,59307,62657,62379,58578,55554,55686,54917,55731,58103,58493,60646,62552
"27340","Jacksonville, NC (Metropolitan Statistical Area)",5046,4861,5027,5508,5713,5748,6002,6597,7292,7758,7646,7440,7363,7233,6907,6864
"27500","Janesville-Beloit, WI (Metropolitan Statistical Area)",4908,5360,5560,5559,5454,5852,5646,5299,4827,4923,5117,5165,5425,5259,5409,5617
"27620","Jefferson City, MO (Metropolitan Statistical Area)",5471,5353,5641,5893,5935,6059,6010,6132,5968,6140,6006,5977,6289,6305,6415,6555
"27740","Johnson City, TN (Metropolitan Statistical Area)",5101,5231,5566,5845,5842,5892,5905,6160,6112,5857,5918,6007,5876,5786,5973,5944
"27780","Johnstown, PA (Metropolitan Statistical Area)",4155,4027,4072,3991,4054,4070,4029,4080,4068,4086,4094,3971,3939,3893,3798,3720
"27860","Jonesboro, AR (Metropolitan Statistical Area)",3346,3308,3584,3717,3808,3925,3858,4074,4126,4330,4292,4305,4376,4321,4420,4525
"27900","Joplin, MO (Metropolitan Statistical Area)",5318,5342,5632,5760,5777,5939,5887,5956,5878,6064,6140,6204,6288,6200,6459,6468
"27980","Kahului-Wailuku-Lahaina, HI (Metropolitan Statistical Area)",5667,5898,6205,6485,6888,7008,7347,7138,6869,6600,7050,7072,7142,7280,7437,7355
"28020","Kalamazoo-Portage, MI (Metropolitan Statistical Area)",12426,13454,13714,13419,13008,13268,13404,13181,12796,12851,12878,12821,13052,13178,13954,14152
"28100","Kankakee, IL (Metropolitan Statistical Area)",3047,3192,3158,3263,3252,3298,3252,3265,3317,3319,3289,3437,3402,3386,3446,3514
"28140","Kansas City, MO-KS (Metropolitan Statistical Area)",92307,94211,96030,93415,98092,100953,104032,105181,102839,102561,102226,106370,108227,110883,113256,114376
"28420","Kennewick-Richland, WA (Metropolitan Statistical Area)",7707,8152,8504,8609,8900,8852,9274,9662,10737,11740,11550,10656,10450,10472,11099,11337
"28660","Killeen-Temple, TX (Metropolitan Statistical Area)",10813,11181,11694,12203,12931,13743,14296,15289,15639,15427,15502,15246,14961,14822,15212,15817
"28700","Kingsport-Bristol-Bristol, TN-VA (Metropolitan Statistical Area)",10082,9850,9764,10279,9884,10490,10579,10774,10552,10779,11254,11400,11076,10402,10353,10172
"28740","Kingston, NY (Metropolitan Statistical Area)",4513,4696,4912,5034,5130,5305,5209,5155,5155,5264,5118,5187,5215,5146,5230,5277
"28940","Knoxville, TN (Metropolitan Statistical Area)",27414,29080,30338,31569,32141,32420,32291,33114,31996,32039,32899,33074,32865,33581,34548,35217
"29020","Kokomo, IN (Metropolitan Statistical Area)",3367,3746,4198,4032,3980,4254,4469,3676,2530,3652,3842,3851,4037,4086,4254,4209
"29100","La Crosse-Onalaska, WI-MN (Metropolitan Statistical Area)",5005,5010,5232,5323,5444,5473,5520,5651,5673,5900,5965,6113,6052,6105,6224,6321
"29180","Lafayette, LA (Metropolitan Statistical Area)",18043,17132,17103,17418,18235,20813,21942,21574,23196,23532,25036,25123,23707,23002,20942,18530
"29200","Lafayette-West Lafayette, IN (Metropolitan Statistical Area)",7094,7312,7434,7729,7815,7920,8176,8338,7820,8238,8487,8477,8458,8552,8590,8727
"29340","Lake Charles, LA (Metropolitan Statistical Area)",10264,11040,13162,14231,17836,15147,12678,12411,11652,12661,10796,11155,10427,11528,12517,13532
"29420","Lake Havasu City-Kingman, AZ (Metropolitan Statistical Area)",3312,3515,3716,4130,4221,4275,4149,3928,3688,3694,3703,3638,3622,3670,3649,3726
"29460","Lakeland-Winter Haven, FL (Metropolitan Statistical Area)",14819,15253,15749,16299,17252,17753,17805,17927,17116,16928,16624,16685,17149,16951,17204,17671
"29540","Lancaster, PA (Metropolitan Statistical Area)",20274,20803,20751,21046,21587,21602,21174,21081,20445,21358,21631,22155,22401,23266,24583,24646
"29620","Lansing-East Lansing, MI (Metropolitan Statistical Area)",19068,19866,19981,19394,19534,19779,19768,18874,17846,19138,18743,18188,18194,18508,18625,19375
"29700","Laredo, TX (Metropolitan Statistical Area)",5870,6260,5995,5759,6097,6294,6316,6263,6481,6762,6989,7050,6943,7021,7112,7079
"29740","Las Cruces, NM (Metropolitan Statistical Area)",4540,4760,5113,5522,5734,5787,5871,6024,6268,6379,6251,5965,5787,5869,6005,6009
"29820","Las Vegas-Henderson-Paradise, NV (Metropolitan Statistical Area)",68883,71925,75764,85659,94342,97184,98507,95437,84961,82922,83297,83380,85247,86308,93001,96595
"29940","Lawrence, KS (Metropolitan Statistical Area)",3542,3507,3539,3770,3614,3454,3559,3655,3679,3695,3729,3633,3649,3666,3798,3888
"30020","Lawton, OK (Metropolitan Statistical Area)",3673,3753,3932,4018,3978,4186,4171,4366,4553,4748,4646,4413,4460,4461,4481,4447
"30140","Lebanon, PA (Metropolitan Statistical Area)",3578,3654,3951,4004,3975,3991,3994,3986,3935,4094,4132,4130,4230,4202,4287,4394
"30300","Lewiston, ID-WA (Metropolitan Statistical Area)",1847,1892,1925,1932,1939,1966,1987,2028,1992,2040,2047,2030,2014,1978,2034,2044
"30340","Lewiston-Auburn, ME (Metropolitan Statistical Area)",3320,3515,3590,3672,3671,3797,3832,3785,3637,3582,3490,3498,3451,3544,3505,3567
"30460","Lexington-Fayette, KY (Metropolitan Statistical Area)",20185,21126,20965,21564,22240,23018,23414,22951,21514,22625,22848,23613,23847,24147,25283,25605
"30620","Lima, OH (Metropolitan Statistical Area)",4317,4481,4527,4646,4779,4831,4726,4427,4945,4948,4913,4632,4697,5029,4634,4648
"30700","Lincoln, NE (Metropolitan Statistical Area)",12537,12832,13643,13421,13678,13876,14249,14114,14087,14653,15011,15683,16028,16476,16431,16677
"30780","Little Rock-North Little Rock-Conway, AR (Metropolitan Statistical Area)",26552,26579,27641,28503,29574,30927,33327,33116,33219,33331,33343,33757,32778,33160,33777,33889
"30860","Logan, UT-ID (Metropolitan Statistical Area)",2564,2671,2921,3047,3077,3187,3352,3506,3566,3875,4049,3986,3903,4047,4219,4197
"30980","Longview, TX (Metropolitan Statistical Area)",7079,7167,7271,7629,8345,9327,9983,10496,9907,10367,9795,10072,10092,10258,9680,9017
"31020","Longview, WA (Metropolitan Statistical Area)",2891,2781,2965,3024,3181,3205,3323,3296,3226,3478,3388,3397,3502,3508,3477,3525
"31080","Los Angeles-Long Beach-Anaheim, CA (Metropolitan Statistical Area)",633463,654132,683771,712356,733202,763234,773495,779676,741630,754535,760055,782013,796785,827992,866578,884836
"31140","Louisville/Jefferson County, KY-IN (Metropolitan Statistical Area)",51381,51397,52431,53976,54973,56422,57069,55648,52989,55378,56920,59016,58993,62685,64032,65668
"31180","Lubbock, TX (Metropolitan Statistical Area)",8204,8553,8784,9190,9605,9864,9815,9915,10128,10556,10387,10649,11296,11182,11558,11858
"31340","Lynchburg, VA (Metropolitan Statistical Area)",7525,7341,7647,7765,8037,8335,8366,8361,8357,8566,8410,8335,8339,8321,8295,8253
"31420","Macon-Bibb County, GA (Metropolitan Statistical Area)",8550,8436,8416,8640,8599,8342,8046,8234,7906,7966,7823,7854,8021,8383,8403,8309
"31460","Madera, CA (Metropolitan Statistical Area)",2751,3048,3233,3607,3917,3953,3929,3855,3549,3890,3902,4095,4264,4628,4571,4737
"31540","Madison, WI (Metropolitan Statistical Area)",29854,30990,31813,33216,34397,34911,35756,35394,35358,35937,36726,37133,37971,38119,40738,42029
"31700","Manchester-Nashua, NH (Metropolitan Statistical Area)",16930,17960,19455,19790,21036,21326,21450,21651,21055,21022,22069,21909,22297,22610,23521,24036
"31740","Manhattan, KS (Metropolitan Statistical Area)",2354,2392,2494,2758,2692,2618,2755,2908,2860,2972,3238,3064,2985,2995,3102,3119
"31860","Mankato-North Mankato, MN (Metropolitan Statistical Area)",3357,3542,3631,3688,3873,4210,3902,3959,3731,3891,4036,4211,4346,4515,4695,4871
"31900","Mansfield, OH (Metropolitan Statistical Area)",4049,4213,4321,4521,4539,4560,4314,4181,3610,3738,3791,3804,3865,3924,3883,3894
"32580","McAllen-Edinburg-Mission, TX (Metropolitan Statistical Area)",10490,11011,11840,12830,13381,13904,13905,14065,14476,15072,15525,15844,16270,16784,17175,17303
"32780","Medford, OR (Metropolitan Statistical Area)",5919,6100,6292,6611,6617,6493,6392,6294,6143,5980,6061,6250,6403,6589,6828,7022
"32820","Memphis, TN-MS-AR (Metropolitan Statistical Area)",60170,62055,63101,64611,64734,65004,65144,63915,61120,62201,61663,61702,61115,60743,61303,62119
"32900","Merced, CA (Metropolitan Statistical Area)",4826,5496,5967,6376,6603,6555,6791,6332,6440,6376,6641,6187,6686,7281,7155,7532
"33100","Miami-Fort Lauderdale-West Palm Beach, FL (Metropolitan Statistical Area)",227174,234137,240599,252457,273868,281747,280570,266927,244409,247557,247940,254161,251037,267639,280390,287775
"33140","Michigan City-La Porte, IN (Metropolitan Statistical Area)",3524,3629,3586,3692,3666,3665,3727,3706,3462,3557,3539,3547,3586,3500,3382,3383
"33220","Midland, MI (Metropolitan Statistical Area)",3809,4039,3905,4206,3845,3826,3928,3844,3701,3797,3883,3775,3742,4280,4548,4701
"33260","Midland, TX (Metropolitan Statistical Area)",16385,17715,14898,12724,11973,11790,12646,15763,15208,16200,19827,23716,25784,27894,29777,29591
"33340","Milwaukee-Waukesha-West Allis, WI (Metropolitan Statistical Area)",77852,78234,80767,82394,85292,88165,88325,88109,85062,86974,89353,90230,91384,92410,89091,89155
"33460","Minneapolis-St. Paul-Bloomington, MN-WI (Metropolitan Statistical Area)",176780,179192,186833,193696,199682,197931,200323,199154,191508,195810,201598,202891,206171,212880,215881,217566
"33540","Missoula, MT (Metropolitan Statistical Area)",3606,3741,3905,3907,3985,4064,4207,4313,4256,4298,4224,4354,4288,4272,4482,4531
"33660","Mobile, AL (Metropolitan Statistical Area)",14534,14563,14712,15179,15852,16938,16707,16680,16489,16524,16843,16451,16237,16219,16645,16847
"33700","Modesto, CA (Metropolitan Statistical Area)",14022,14819,15496,16448,16792,16673,16109,16044,15895,15742,15716,15345,15657,16517,16932,17430
"33740","Monroe, LA (Metropolitan Statistical Area)",5520,5832,5824,6036,6084,6259,6198,5971,6329,6378,6186,6084,6177,6159,6360,6432
"33780","Monroe, MI (Metropolitan Statistical Area)",4141,4671,4684,4694,4492,4549,4328,4037,3703,3935,4100,4259,4321,4254,4227,4213
"33860","Montgomery, AL (Metropolitan Statistical Area)",13724,14094,14292,15311,15214,15372,15092,15438,14928,15053,15042,14920,14987,14825,14956,15269
"34060","Morgantown, WV (Metropolitan Statistical Area)",4401,4270,4383,4698,4958,5086,5050,5268,5700,5910,5959,6048,6238,6387,6649,6692
"34100","Morristown, TN (Metropolitan Statistical Area)",3248,3264,3405,3599,3484,3604,3471,3376,3057,3306,3334,3505,3508,3570,3621,3611
"34580","Mount Vernon-Anacortes, WA (Metropolitan Statistical Area)",4209,4670,4548,4438,5856,4809,4713,4747,5067,5161,4405,4146,4413,4401,4734,4763
"34620","Muncie, IN (Metropolitan Statistical Area)",3699,3731,3791,3706,3601,3649,3489,3416,3210,3269,3351,3484,3444,3389,3365,3307
"34740","Muskegon, MI (Metropolitan Statistical Area)",4898,4929,4933,4940,4968,4955,4790,4687,4509,4637,4717,4809,4937,5010,5138,5146
"34820","Myrtle Beach-Conway-North Myrtle Beach, SC-NC (Metropolitan Statistical Area)",11335,11886,12114,12981,14465,14501,14347,13449,12951,12922,13201,13485,13818,14057,14406,14566
"34900","Napa, CA (Metropolitan Statistical Area)",7227,7249,7278,7325,7695,7978,7911,7954,7743,7371,7357,7863,8184,8608,9075,9005
"34940","Naples-Immokalee-Marco Island, FL (Metropolitan Statistical Area)",14816,15059,14590,14633,15900,16404,15750,13943,12583,12765,12692,12925,13051,13974,14913,15077
"34980","Nashville-Davidson--Murfreesboro--Franklin, TN (Metropolitan Statistical Area)",68332,70533,73297,77278,78977,82310,81440,83392,80107,81970,86067,92352,95448,99700,105809,109379
"35100","New Bern, NC (Metropolitan Statistical Area)",3916,3889,4031,4208,4478,4514,4425,4338,4361,4491,4399,4407,4384,4365,4344,4343
"35300","New Haven-Milford, CT (Metropolitan Statistical Area)",38024,39062,39664,41957,41913,43806,43358,40994,38939,39130,38712,38471,38387,37911,38318,39023
"35380","New Orleans-Metairie, LA (Metropolitan Statistical Area)",72083,72642,75148,77059,76735,71357,67722,67628,67917,71241,65246,65724,61858,63870,66907,67561
"35620","New York-Newark-Jersey City, NY-NJ-PA (Metropolitan Statistical Area)",1170042,1169318,1174496,1207597,1255907,1291196,1309460,1270765,1276470,1321890,1325597,1364250,1367357,1391582,1413281,1426027
"35660","Niles-Benton Harbor, MI (Metropolitan Statistical Area)",5761,6035,5957,5943,5882,6020,6186,5809,5664,6044,5750,5623,5834,5929,6007,5996
"35840","North Port-Sarasota-Bradenton, FL (Metropolitan Statistical Area)",19735,21431,23190,25355,28050,28483,27303,24849,22923,22526,22480,22600,22914,24106,25357,26245
"35980","Norwich-New London, CT (Metropolitan Statistical Area)",12538,13557,14370,16454,16022,16251,16346,14988,14334,14436,14116,13893,13562,13039,13456,13979
"36100","Ocala, FL (Metropolitan Statistical Area)",6076,6374,6818,7194,7689,8372,8305,7951,7100,6957,6877,6872,6648,6882,7017,7371
"36140","Ocean City, NJ (Metropolitan Statistical Area)",4017,4280,4663,5228,5350,4861,4335,4235,4212,4221,4261,4208,4461,4559,4466,4543
"36220","Odessa, TX (Metropolitan Statistical Area)",4381,4355,4171,4195,4480,5147,6045,6448,6057,6318,7493,9145,10049,10616,9577,8308
"36260","Ogden-Clearfield, UT (Metropolitan Statistical Area)",15700,16382,16867,17250,17656,19015,19440,19212,19427,19820,19856,19309,19788,20119,21016,21575
"36420","Oklahoma City, OK (Metropolitan Statistical Area)",46859,48007,50614,50322,51327,52851,53423,54229,55523,55958,57265,59137,61798,63172,67172,65666
"36500","Olympia-Tumwater, WA (Metropolitan Statistical Area)",7785,7997,8159,8527,8788,8877,9240,9413,9430,9437,9245,9193,9315,9366,9667,10037
"36540","Omaha-Council Bluffs, NE-IA (Metropolitan Statistical Area)",39148,39965,41054,43769,44944,46445,46568,46455,46152,47333,48683,49826,49900,52287,53054,53621
"36740","Orlando-Kissimmee-Sanford, FL (Metropolitan Statistical Area)",80392,82304,88105,93142,98555,102494,106460,105764,99136,98945,98899,99420,108654,106542,109345,111767
"36780","Oshkosh-Neenah, WI (Metropolitan Statistical Area)",7191,7702,7717,7952,8030,8176,8283,8121,7716,8262,8632,8732,8590,8720,8834,9060
"36980","Owensboro, KY (Metropolitan Statistical Area)",3906,4301,4363,4508,4164,4477,4458,4872,4835,4792,4755,4559,4806,4809,4919,4938
"37100","Oxnard-Thousand Oaks-Ventura, CA (Metropolitan Statistical Area)",32051,32895,35446,37320,37914,39171,40155,38355,38636,40791,41665,42468,43381,43604,43644,42472
"37340","Palm Bay-Melbourne-Titusville, FL (Metropolitan Statistical Area)",13966,14683,15591,17173,18378,18729,19416,19376,18419,18522,17648,17222,17333,17420,17895,18382
"37460","Panama City, FL (Metropolitan Statistical Area)",5414,5894,6160,6687,7135,7580,7400,7294,7077,7084,6729,6667,7144,7241,7294,7274
"37620","Parkersburg-Vienna, WV (Metropolitan Statistical Area)",3291,3326,3282,3281,3188,3417,3290,3313,3445,3336,3376,3372,3477,3674,3675,3511
"37860","Pensacola-Ferry Pass-Brent, FL (Metropolitan Statistical Area)",13114,13022,13300,14065,14347,15146,14916,14369,13878,14147,14276,14430,14817,14658,14956,15383
"37900","Peoria, IL (Metropolitan Statistical Area)",14323,14290,14867,15819,16604,17825,18380,18821,18001,18405,20134,21494,18509,18531,17707,17449
"37980","Philadelphia-Camden-Wilmington, PA-NJ-DE-MD (Metropolitan Statistical Area)",300375,305188,314774,324612,329152,336161,345348,346780,340837,344835,346289,352056,363869,366687,375200,381332
"38060","Phoenix-Mesa-Scottsdale, AZ (Metropolitan Statistical Area)",149176,154096,162920,170668,186299,198620,203544,195843,177615,178640,182413,187477,188076,193190,198049,203253
"38220","Pine Bluff, AR (Metropolitan Statistical Area)",2997,3029,3115,3223,3217,3294,3153,3138,3053,3074,3019,3007,2912,2792,2641,2605
"38300","Pittsburgh, PA (Metropolitan Statistical Area)",106840,106764,109549,108720,107241,108228,107906,107625,108287,112041,115313,116075,118174,122356,126536,126663
"38340","Pittsfield, MA (Metropolitan Statistical Area)",5529,6205,5935,5888,5823,5752,5596,5385,5293,5317,5729,5856,5521,5476,5574,5717
"38540","Pocatello, ID (Metropolitan Statistical Area)",2099,2094,2240,2386,2428,2411,2495,2566,2377,2397,2427,2435,2290,2281,2310,2367
"38860","Portland-South Portland, ME (Metropolitan Statistical Area)",22650,23012,23685,24930,24888,25426,25354,25312,24930,25518,25453,25536,25484,25997,26613,27036
"38900","Portland-Vancouver-Hillsboro, OR-WA (Metropolitan Statistical Area)",84794,86307,90573,100860,104160,115364,120828,130434,131012,141374,148621,142586,138916,141338,147412,151817
"38940","Port St. Lucie, FL (Metropolitan Statistical Area)",8765,9552,10078,11291,12410,12803,12862,12106,11389,11147,10910,11039,10922,11017,11441,11837
"39140","Prescott, AZ (Metropolitan Statistical Area)",4168,4365,4631,4834,5195,5494,5410,5202,4871,4645,4683,4743,4690,4893,4963,5138
"39300","Providence-Warwick, RI-MA (Metropolitan Statistical Area)",61594,63526,66181,67814,68283,69881,68291,67431,65547,67001,66814,67866,67811,68531,69710,70519
"39340","Provo-Orem, UT (Metropolitan Statistical Area)",10721,11020,11519,12451,13464,14598,15586,15143,15059,14929,15491,16030,16751,17501,19309,20495
"39380","Pueblo, CO (Metropolitan Statistical Area)",3864,3880,3988,4249,4003,4003,4072,4141,4100,4115,4127,4231,4134,4225,4210,4298
"39460","Punta Gorda, FL (Metropolitan Statistical Area)",3110,3287,3367,3503,3773,3834,3549,3374,3107,3123,3103,3245,3056,3271,3484,3608
"39540","Racine, WI (Metropolitan Statistical Area)",7130,7196,7379,7677,7635,7428,7244,6919,6786,7366,7181,7212,6954,6890,6921,6799
"39580","Raleigh, NC (Metropolitan Statistical Area)",45328,43507,44538,47286,49795,52672,56435,56514,55860,57181,58462,59932,60609,63116,67196,70737
"39660","Rapid City, SD (Metropolitan Statistical Area)",4716,5209,5321,5281,5283,5201,5161,5139,5024,5205,5492,5559,5499,5642,5568,5637
"39740","Reading, PA (Metropolitan Statistical Area)",14333,14560,14772,14618,14885,15574,15222,14958,14580,14963,15102,15263,15502,16505,17142,17800
"39820","Redding, CA (Metropolitan Statistical Area)",5253,5813,6041,5837,5638,5617,5556,5275,4981,5002,4990,4844,4905,5081,5252,5430
"39900","Reno, NV (Metropolitan Statistical Area)",19813,19914,20416,21852,22389,22755,22392,20637,19295,19371,19106,18691,19089,19968,22113,22748
"40060","Richmond, VA (Metropolitan Statistical Area)",58554,57838,58612,57990,61922,62465,62628,62286,60949,61992,62508,64269,65101,65769,68190,69987
"40140","Riverside-San Bernardino-Ontario, CA (Metropolitan Statistical Area)",92120,98427,106256,116684,124722,127862,124998,121764,112026,112878,115863,114642,119358,122408,127354,130716
"40220","Roanoke, VA (Metropolitan Statistical Area)",12312,12488,12688,12703,13176,13361,13557,13614,13501,13301,13166,13213,13200,13167,13472,13418
"40340","Rochester, MN (Metropolitan Statistical Area)",8051,8607,9224,9239,9198,9349,9147,9315,9181,9732,9646,9972,10000,10267,10534,10910
"40380","Rochester, NY (Metropolitan Statistical Area)",46469,47852,48649,49153,49665,50370,48893,48119,48710,49822,49006,49194,49434,48013,48388,48315
"40420","Rockford, IL (Metropolitan Statistical Area)",12571,12568,12760,12807,13003,13462,13630,13299,12194,12467,12855,13199,12928,13060,12947,12919
"40580","Rocky Mount, NC (Metropolitan Statistical Area)",5806,5971,5983,5999,5842,6064,5865,5863,5905,5947,6008,5558,5510,5375,5608,5260
"40660","Rome, GA (Metropolitan Statistical Area)",3231,3241,3327,3591,3384,3371,3368,3373,3279,3225,3161,3228,3278,3294,3317,3362
"40900","Sacramento--Roseville--Arden-Arcade, CA (Metropolitan Statistical Area)",85624,90164,96472,99914,103731,104448,103047,100384,95085,93117,94869,95590,97640,99965,103006,107127
"40980","Saginaw, MI (Metropolitan Statistical Area)",7551,7672,7878,7660,7707,7757,7369,6846,6586,7055,7200,7215,7274,7213,7159,7302
"41060","St. Cloud, MN (Metropolitan Statistical Area)",6815,7118,7192,7549,7636,7683,7487,7581,7342,7526,7612,7794,7901,8229,8306,8749
"41100","St. George, UT (Metropolitan Statistical Area)",2520,2642,2858,3279,3633,3894,4027,3696,3361,3361,3522,3548,3707,3882,4163,4443
"41140","St. Joseph, MO-KS (Metropolitan Statistical Area)",3889,3978,4088,4309,4262,4538,4650,4669,4675,4729,4691,4982,5149,4883,4718,4645
"41180","St. Louis, MO-IL (Metropolitan Statistical Area)",126476,127209,130434,132101,133514,132526,133244,135768,132568,134051,133252,134592,136156,137606,139580,140712
"41420","Salem, OR (Metropolitan Statistical Area)",11197,11327,11409,11574,11838,12573,12279,12715,12485,12264,12037,12010,12152,12754,13599,14038
"41500","Salinas, CA (Metropolitan Statistical Area)",16774,17454,18317,17112,17571,18191,17183,17267,17808,17729,17010,17304,18126,18331,19452,19925
"41540","Salisbury, MD-DE (Metropolitan Statistical Area)",11283,11349,12086,13222,14074,14817,14924,14226,13833,13831,13229,13165,13986,14744,15003,15512
"41620","Salt Lake City, UT (Metropolitan Statistical Area)",49307,49291,49895,51774,54845,59127,63127,61991,60564,62047,64477,65892,66175,67976,71253,73424
"41660","San Angelo, TX (Metropolitan Statistical Area)",3744,3774,3774,3765,3934,3972,4057,4273,4152,4176,4044,4126,4379,4759,4713,4505
"41700","San Antonio-New Braunfels, TX (Metropolitan Statistical Area)",67004,67968,70589,73160,74762,79668,80838,82381,79363,80912,83814,88033,93734,100487,106032,109348
"41740","San Diego-Carlsbad, CA (Metropolitan Statistical Area)",144769,150459,159069,173570,182563,182741,182787,181998,172502,173446,179174,181381,186894,189206,189998,190656
"41860","San Francisco-Oakland-Hayward, CA (Metropolitan Statistical Area)",292824,291735,293332,299826,315948,327127,338974,348447,331326,321982,321282,337958,350660,367608,385619,406294
"41940","San Jose-Sunnyvale-Santa Clara, CA (Metropolitan Statistical Area)",128870,121083,124592,126632,133991,144300,157391,158597,149925,161534,172532,178834,188663,202592,223759,236855
"42020","San Luis Obispo-Paso Robles-Arroyo Grande, CA (Metropolitan Statistical Area)",9554,10505,11161,12146,11756,11233,11453,11294,10892,10944,10891,11285,12036,12025,12359,12437
"42100","Santa Cruz-Watsonville, CA (Metropolitan Statistical Area)",10795,10774,10640,10298,10235,10362,10098,10099,10288,10764,10332,10155,10741,11025,11341,11865
"42140","Santa Fe, NM (Metropolitan Statistical Area)",5977,6864,6266,6215,6315,6748,6711,7285,6478,6627,6470,6294,6478,6124,6323,6247
"42200","Santa Maria-Santa Barbara, CA (Metropolitan Statistical Area)",17403,18009,18580,19444,20091,20123,20118,20095,20459,19948,20238,20509,21062,21442,22496,22334
"42220","Santa Rosa, CA (Metropolitan Statistical Area)",20858,21428,21143,21092,21422,21512,21248,21458,20206,20312,20751,20527,21499,22429,23753,24120
"42340","Savannah, GA (Metropolitan Statistical Area)",11219,11361,11609,12417,13192,13847,13830,13595,13262,13458,13545,14014,14160,14644,14980,15173
"42540","Scranton--Wilkes-Barre--Hazleton, PA (Metropolitan Statistical Area)",19336,19332,19446,19629,19514,20161,19727,19415,19270,19906,19810,19709,20599,20109,20501,20568
"42660","Seattle-Tacoma-Bellevue, WA (Metropolitan Statistical Area)",199302,200991,202770,205138,217644,228299,245244,247734,237726,240771,245216,256930,264336,273702,281373,293551
"42680","Sebastian-Vero Beach, FL (Metropolitan Statistical Area)",3911,3984,4186,4344,4492,4583,4864,4719,4322,4054,4008,4187,4101,4396,4641,4880
"42700","Sebring, FL (Metropolitan Statistical Area)",1532,1669,1749,1852,1967,2106,1990,1875,1876,1852,1789,1815,1769,1693,1743,1783
"43100","Sheboygan, WI (Metropolitan Statistical Area)",4925,5172,5207,5434,5200,5199,5268,5152,5018,5028,4926,5178,5180,5245,5204,5326
"43300","Sherman-Denison, TX (Metropolitan Statistical Area)",2813,2838,2958,3186,3237,3451,3439,3458,3363,3480,3557,3575,3763,3713,3827,3894
"43340","Shreveport-Bossier City, LA (Metropolitan Statistical Area)",17596,17169,17054,17488,18137,18670,18267,19756,20669,21926,19094,18250,18577,18798,19067,18867
"43420","Sierra Vista-Douglas, AZ (Metropolitan Statistical Area)",3159,3234,3463,3475,3664,3706,3810,3958,4205,4310,4262,3998,3720,3536,3507,3517
"43580","Sioux City, IA-NE-SD (Metropolitan Statistical Area)",7117,7230,7260,8010,8171,8194,8228,9205,8950,8639,8003,7516,7861,7769,8090,8290
"43620","Sioux Falls, SD (Metropolitan Statistical Area)",9493,11163,11331,11817,12145,12684,13289,13709,13887,13518,14310,14822,14407,14825,15425,15768
"43780","South Bend-Mishawaka, IN-MI (Metropolitan Statistical Area)",11117,11520,11943,12252,12248,12481,12500,12149,11127,11480,12006,11848,11551,11772,11977,12295
"43900","Spartanburg, SC (Metropolitan Statistical Area)",10290,10666,11146,11212,11431,11973,12123,12002,10726,11586,11801,11645,11860,12333,12710,13245
"44060","Spokane-Spokane Valley, WA (Metropolitan Statistical Area)",16399,16560,17129,17646,18424,18974,19679,20064,19780,20176,20647,20259,20191,20618,20933,21107
"44100","Springfield, IL (Metropolitan Statistical Area)",8804,8979,8912,8816,8956,8878,8844,8675,9035,9292,9192,8983,8689,8922,8771,8664
"44140","Springfield, MA (Metropolitan Statistical Area)",21389,21446,22035,22192,22814,22221,22392,22466,21981,22269,22581,22937,23127,23127,23685,23936
"44180","Springfield, MO (Metropolitan Statistical Area)",13438,13737,14561,15236,16016,17239,16691,15545,15186,15112,15193,15131,15482,15694,16133,16311
"44220","Springfield, OH (Metropolitan Statistical Area)",4112,4019,3888,3956,3983,4112,3913,3814,3570,3608,3751,3782,3845,3868,3769,3773
"44300","State College, PA (Metropolitan Statistical Area)",5379,5481,5572,5684,6168,6063,6029,6151,6276,6498,6587,6955,7327,7619,7979,7962
"44420","Staunton-Waynesboro, VA (Metropolitan Statistical Area)",4059,3862,3911,4107,4230,4193,4305,4498,4728,4871,4538,4192,4262,4294,4422,4329
"44700","Stockton-Lodi, CA (Metropolitan Statistical Area)",18754,19612,20671,21411,21949,22019,21382,20842,21019,20955,20529,20715,21006,21176,22201,23226
"44940","Sumter, SC (Metropolitan Statistical Area)",2970,3033,3084,3160,3206,3268,3215,3087,3012,3028,3125,3330,3306,3313,3269,3249
"45060","Syracuse, NY (Metropolitan Statistical Area)",25932,26626,26752,27563,28053,28330,28808,28474,28350,29100,28681,29045,28556,28609,28781,28906
"45220","Tallahassee, FL (Metropolitan Statistical Area)",12564,12723,13024,13427,13451,13543,14130,13775,13377,13203,12960,13172,13104,13091,13156,13726
"45300","Tampa-St. Petersburg-Clearwater, FL (Metropolitan Statistical Area)",93669,98246,102371,107959,113843,118243,119507,115786,111176,110028,109929,112552,118066,117754,121048,126166
"45460","Terre Haute, IN (Metropolitan Statistical Area)",5428,5620,5850,6035,5893,6061,6325,6387,6016,6265,6040,5887,5952,5778,5554,5447
"45500","Texarkana, TX-AR (Metropolitan Statistical Area)",4170,4273,4392,4607,4715,4779,4825,4876,4882,4995,4984,4857,4513,4464,4549,4646
"45540","The Villages, FL (Metropolitan Statistical Area)",885,969,1177,1215,1435,1610,1690,1629,1713,1855,1928,2000,2021,2125,2153,2282
"45780","Toledo, OH (Metropolitan Statistical Area)",26130,26804,26923,27262,27443,27915,27607,26454,26070,26061,26705,26432,27146,29194,28159,28421
"45820","Topeka, KS (Metropolitan Statistical Area)",9023,9059,9090,9613,9181,8849,9179,9199,9126,9365,9300,9365,9169,9163,8949,9145
"45940","Trenton, NJ (Metropolitan Statistical Area)",22626,23623,23862,24107,24602,25217,24687,25210,23960,24850,25294,28564,26756,26378,26439,27239
"46060","Tucson, AZ (Metropolitan Statistical Area)",31103,30779,32536,32142,33317,34406,35971,36310,34036,34231,33855,34979,33905,33453,32520,32590
"46140","Tulsa, OK (Metropolitan Statistical Area)",35352,35012,34447,38608,40598,43919,45900,45340,42929,42758,48186,51828,55415,59096,59505,57528
"46220","Tuscaloosa, AL (Metropolitan Statistical Area)",6679,7089,7297,7885,8325,8352,8771,8914,8834,9219,9862,9632,10049,9782,10100,9666
"46340","Tyler, TX (Metropolitan Statistical Area)",7537,7659,7563,8057,8590,9071,9260,10397,10212,10797,11798,12143,13074,13638,14286,14537
"46520","Urban Honolulu, HI (Metropolitan Statistical Area)",39727,40830,42832,45570,47370,49321,49911,50587,48996,51479,51727,52481,53531,53836,55168,56581
"46540","Utica-Rome, NY (Metropolitan Statistical Area)",8783,8933,9028,9243,9486,9716,9667,9642,9678,9835,9583,9650,9609,9395,9370,9372
"46660","Valdosta, GA (Metropolitan Statistical Area)",3619,3744,3882,3979,4305,4317,4415,4268,4317,4401,4197,4300,4197,4202,4183,4161
"46700","Vallejo-Fairfield, CA (Metropolitan Statistical Area)",13119,13614,14357,14378,14806,14621,14703,15358,15647,15076,14416,14932,15966,16309,16816,17330
"47020","Victoria, TX (Metropolitan Statistical Area)",3315,3356,3301,3417,3670,4120,4096,4238,3795,4083,4100,4543,4876,5029,4821,4330
"47220","Vineland-Bridgeton, NJ (Metropolitan Statistical Area)",4726,4799,5007,5197,5424,5469,5310,5439,5426,5225,5092,5037,4906,4967,4977,5003
"47260","Virginia Beach-Norfolk-Newport News, VA-NC (Metropolitan Statistical Area)",69739,69411,71944,74715,78036,82210,83585,82623,82471,81132,81361,80740,80263,79995,82260,81363
"47300","Visalia-Porterville, CA (Metropolitan Statistical Area)",9409,9620,10021,10893,11784,11813,12352,11944,11224,12368,13010,11931,12571,13537,13436,14241
"47380","Waco, TX (Metropolitan Statistical Area)",6988,7241,7688,8179,8388,8518,8545,8716,8738,9087,8995,9302,9650,9862,10191,10586
"47460","Walla Walla, WA (Metropolitan Statistical Area)",1956,1974,2071,2020,2096,2157,2189,2290,2382,2447,2440,2409,2399,2335,2410,2517
"47580","Warner Robins, GA (Metropolitan Statistical Area)",5128,5416,5571,5649,5956,6087,6170,6065,6136,6220,6255,6208,6092,6066,5975,5963
"47900","Washington-Arlington-Alexandria, DC-VA-MD-WV (Metropolitan Statistical Area)",331023,340881,354473,374539,389446,396100,401995,409558,410670,426285,432811,435149,431879,434050,444442,449293
"47940","Waterloo-Cedar Falls, IA (Metropolitan Statistical Area)",6206,6486,6471,7308,7513,7488,7786,7682,7564,7747,7649,8839,7999,8238,8060,7936
"48060","Watertown-Fort Drum, NY (Metropolitan Statistical Area)",4471,4404,4378,4543,4971,5407,5331,5520,5779,6111,6250,6098,5946,5790,5536,5502
"48140","Wausau, WI (Metropolitan Statistical Area)",5167,5332,5663,5836,6025,6039,6129,6044,5740,5889,5934,6273,6309,6534,6739,6764
"48260","Weirton-Steubenville, WV-OH (Metropolitan Statistical Area)",3938,4151,4035,3910,3936,3648,3702,3920,3687,3530,3485,3584,3601,3782,3666,3659
"48300","Wenatchee, WA (Metropolitan Statistical Area)",3092,3465,3262,3409,3401,3527,3538,3626,3789,3766,3762,3798,3745,3828,4046,4140
"48540","Wheeling, WV-OH (Metropolitan Statistical Area)",5307,5401,5537,5560,5665,5687,5752,5948,5915,6021,6050,6355,6360,6682,6612,6422
"48620","Wichita, KS (Metropolitan Statistical Area)",25465,25318,24872,26935,26090,27621,29209,28489,25651,27820,27711,28346,26528,27335,28995,28592
"48660","Wichita Falls, TX (Metropolitan Statistical Area)",5133,5297,5158,5070,5147,5540,5705,6386,6091,5921,6294,6402,6750,6300,6259,6175
"48700","Williamsport, PA (Metropolitan Statistical Area)",3759,3697,3788,3817,3942,3964,3803,3717,3699,3917,4326,4482,4601,4794,4470,4181
"48900","Wilmington, NC (Metropolitan Statistical Area)",8436,8626,8730,9164,10093,10566,10669,10733,10524,10533,10767,10304,11044,11510,11948,12325
"49020","Winchester, VA-WV (Metropolitan Statistical Area)",4226,4391,4542,4829,5173,5240,5049,4782,4949,5095,5194,5265,5340,5391,5546,5458
"49180","Winston-Salem, NC (Metropolitan Statistical Area)",25514,24714,25663,26733,26287,26519,25201,25015,24038,24771,24083,23222,23433,24790,25371,24760
"49340","Worcester, MA-CT (Metropolitan Statistical Area)",31830,32508,34089,33823,33930,34182,34027,33967,32562,33942,34956,35090,35267,35287,36003,37453
"49420","Yakima, WA (Metropolitan Statistical Area)",6174,6461,6685,6734,6954,7072,7115,7366,7588,7890,7972,7859,7679,7911,7990,8247
"49620","York-Hanover, PA (Metropolitan Statistical Area)",14062,14220,14885,15718,16914,16430,16909,17536,16580,16746,16278,15736,16101,15968,16107,16457
"49660","Youngstown-Warren-Boardman, OH-PA (Metropolitan Statistical Area)",19768,20172,20452,20562,20020,20334,19441,18523,16398,17138,18218,18000,17498,17667,17947,17923
"49700","Yuba City, CA (Metropolitan Statistical Area)",3880,4175,4296,4313,4309,4415,4375,4585,4852,4660,4597,4484,4664,4703,4856,4987
"49740","Yuma, AZ (Metropolitan Statistical Area)",4239,4620,4721,5171,5334,5540,5484,5310,5208,5402,5481,5127,5336,5167,5510,5655
"Legend / Footnotes:"
"Note-- NAICS Industry detail is based on the 2007 North American Industry Classification System (NAICS)."
"Note-- Per capita real GDP statistics for 2001-2016 reflect Census Bureau midyear population estimates available as of March 2017."
"Last updated: September 20, 2017 -- new statistics for 2016; revised statistics for 2001-2015."
